^C:\USERS\MKULTRA\DOCUMENTS\VISUAL STUDIO 2013\PROJECTS\GUITEST\GUITEST\CHART.CPP|C:\USERS\MKULTRA\DOCUMENTS\VISUAL STUDIO 2013\PROJECTS\GUITEST\GUITEST\DATACOLLECTOR.CPP|C:\USERS\MKULTRA\DOCUMENTS\VISUAL STUDIO 2013\PROJECTS\GUITEST\GUITEST\GENERATEDFILES\DEBUG\MOC_CHART.CPP|C:\USERS\MKULTRA\DOCUMENTS\VISUAL STUDIO 2013\PROJECTS\GUITEST\GUITEST\GENERATEDFILES\DEBUG\MOC_GUITEST.CPP|C:\USERS\MKULTRA\DOCUMENTS\VISUAL STUDIO 2013\PROJECTS\GUITEST\GUITEST\GUITEST.CPP|C:\USERS\MKULTRA\DOCUMENTS\VISUAL STUDIO 2013\PROJECTS\GUITEST\GUITEST\MAIN.CPP
C:\USERS\MKULTRA\DOCUMENTS\VISUAL STUDIO 2013\PROJECTS\GUITEST\GUITEST\DEBUG\VC120.PDB
C:\USERS\MKULTRA\DOCUMENTS\VISUAL STUDIO 2013\PROJECTS\GUITEST\GUITEST\DEBUG\MAIN.OBJ
C:\USERS\MKULTRA\DOCUMENTS\VISUAL STUDIO 2013\PROJECTS\GUITEST\GUITEST\DEBUG\GUITEST.OBJ
C:\USERS\MKULTRA\DOCUMENTS\VISUAL STUDIO 2013\PROJECTS\GUITEST\GUITEST\DEBUG\MOC_GUITEST.OBJ
C:\USERS\MKULTRA\DOCUMENTS\VISUAL STUDIO 2013\PROJECTS\GUITEST\GUITEST\DEBUG\MOC_CHART.OBJ
C:\USERS\MKULTRA\DOCUMENTS\VISUAL STUDIO 2013\PROJECTS\GUITEST\GUITEST\DEBUG\DATACOLLECTOR.OBJ
C:\USERS\MKULTRA\DOCUMENTS\VISUAL STUDIO 2013\PROJECTS\GUITEST\GUITEST\DEBUG\CHART.OBJ
^C:\USERS\MKULTRA\DOCUMENTS\VISUAL STUDIO 2013\PROJECTS\GUITEST\GUITEST\CHART.CPP
C:\USERS\MKULTRA\DOCUMENTS\VISUAL STUDIO 2013\PROJECTS\GUITEST\GUITEST\DEBUG\VC120.PDB
^C:\USERS\MKULTRA\DOCUMENTS\VISUAL STUDIO 2013\PROJECTS\GUITEST\GUITEST\GENERATEDFILES\DEBUG\MOC_QCUSTOMPLOT.CPP|C:\USERS\MKULTRA\DOCUMENTS\VISUAL STUDIO 2013\PROJECTS\GUITEST\GUITEST\QCUSTOMPLOT.CPP
C:\USERS\MKULTRA\DOCUMENTS\VISUAL STUDIO 2013\PROJECTS\GUITEST\GUITEST\DEBUG\VC120.PDB
C:\USERS\MKULTRA\DOCUMENTS\VISUAL STUDIO 2013\PROJECTS\GUITEST\GUITEST\DEBUG\QCUSTOMPLOT.OBJ
C:\USERS\MKULTRA\DOCUMENTS\VISUAL STUDIO 2013\PROJECTS\GUITEST\GUITEST\DEBUG\MOC_QCUSTOMPLOT.OBJ
^C:\USERS\MKULTRA\DOCUMENTS\VISUAL STUDIO 2013\PROJECTS\GUITEST\GUITEST\GENERATEDFILES\DEBUG\MOC_QCUSTOMPLOT.CPP
C:\USERS\MKULTRA\DOCUMENTS\VISUAL STUDIO 2013\PROJECTS\GUITEST\GUITEST\DEBUG\VC120.PDB
^C:\USERS\MKULTRA\DOCUMENTS\VISUAL STUDIO 2013\PROJECTS\GUITEST\GUITEST\QCUSTOMPLOT.CPP
C:\USERS\MKULTRA\DOCUMENTS\VISUAL STUDIO 2013\PROJECTS\GUITEST\GUITEST\DEBUG\VC120.PDB
^C:\USERS\MKULTRA\DOCUMENTS\VISUAL STUDIO 2013\PROJECTS\GUITEST\GUITEST\GUITEST.CPP|C:\USERS\MKULTRA\DOCUMENTS\VISUAL STUDIO 2013\PROJECTS\GUITEST\GUITEST\MAIN.CPP
C:\USERS\MKULTRA\DOCUMENTS\VISUAL STUDIO 2013\PROJECTS\GUITEST\GUITEST\DEBUG\VC120.PDB
C:\USERS\MKULTRA\DOCUMENTS\VISUAL STUDIO 2013\PROJECTS\GUITEST\GUITEST\DEBUG\MAIN.OBJ
^C:\USERS\MKULTRA\DOCUMENTS\VISUAL STUDIO 2013\PROJECTS\GUITEST\GUITEST\GENERATEDFILES\DEBUG\MOC_GUITEST.CPP|C:\USERS\MKULTRA\DOCUMENTS\VISUAL STUDIO 2013\PROJECTS\GUITEST\GUITEST\GUITEST.CPP|C:\USERS\MKULTRA\DOCUMENTS\VISUAL STUDIO 2013\PROJECTS\GUITEST\GUITEST\MAIN.CPP
C:\USERS\MKULTRA\DOCUMENTS\VISUAL STUDIO 2013\PROJECTS\GUITEST\GUITEST\DEBUG\VC120.PDB
C:\USERS\MKULTRA\DOCUMENTS\VISUAL STUDIO 2013\PROJECTS\GUITEST\GUITEST\DEBUG\MAIN.OBJ
C:\USERS\MKULTRA\DOCUMENTS\VISUAL STUDIO 2013\PROJECTS\GUITEST\GUITEST\DEBUG\GUITEST.OBJ
C:\USERS\MKULTRA\DOCUMENTS\VISUAL STUDIO 2013\PROJECTS\GUITEST\GUITEST\DEBUG\MOC_GUITEST.OBJ
^C:\USERS\MKULTRA\DOCUMENTS\VISUAL STUDIO 2013\PROJECTS\GUITEST\GUITEST\GENERATEDFILES\QRC_GUITEST.CPP
C:\USERS\MKULTRA\DOCUMENTS\VISUAL STUDIO 2013\PROJECTS\GUITEST\GUITEST\DEBUG\VC120.PDB
C:\USERS\MKULTRA\DOCUMENTS\VISUAL STUDIO 2013\PROJECTS\GUITEST\GUITEST\DEBUG\QRC_GUITEST.OBJ
^C:\USERS\MKULTRA\DOCUMENTS\VISUAL STUDIO 2013\PROJECTS\GUITEST\GUITEST\DATACOLLECTOR.CPP|C:\USERS\MKULTRA\DOCUMENTS\VISUAL STUDIO 2013\PROJECTS\GUITEST\GUITEST\GENERATEDFILES\DEBUG\MOC_GUITEST.CPP|C:\USERS\MKULTRA\DOCUMENTS\VISUAL STUDIO 2013\PROJECTS\GUITEST\GUITEST\GUITEST.CPP|C:\USERS\MKULTRA\DOCUMENTS\VISUAL STUDIO 2013\PROJECTS\GUITEST\GUITEST\MAIN.CPP
C:\USERS\MKULTRA\DOCUMENTS\VISUAL STUDIO 2013\PROJECTS\GUITEST\GUITEST\DEBUG\VC120.PDB
C:\USERS\MKULTRA\DOCUMENTS\VISUAL STUDIO 2013\PROJECTS\GUITEST\GUITEST\DEBUG\MAIN.OBJ
C:\USERS\MKULTRA\DOCUMENTS\VISUAL STUDIO 2013\PROJECTS\GUITEST\GUITEST\DEBUG\GUITEST.OBJ
C:\USERS\MKULTRA\DOCUMENTS\VISUAL STUDIO 2013\PROJECTS\GUITEST\GUITEST\DEBUG\MOC_GUITEST.OBJ
C:\USERS\MKULTRA\DOCUMENTS\VISUAL STUDIO 2013\PROJECTS\GUITEST\GUITEST\DEBUG\DATACOLLECTOR.OBJ
^C:\USERS\MKULTRA\DOCUMENTS\VISUAL STUDIO 2013\PROJECTS\GUITEST\GUITEST\DATACOLLECTOR.CPP
C:\USERS\MKULTRA\DOCUMENTS\VISUAL STUDIO 2013\PROJECTS\GUITEST\GUITEST\DEBUG\VC120.PDB
^C:\USERS\MKULTRA\DOCUMENTS\VISUAL STUDIO 2013\PROJECTS\GUITEST\GUITEST\GENERATEDFILES\DEBUG\MOC_GUITEST.CPP
C:\USERS\MKULTRA\DOCUMENTS\VISUAL STUDIO 2013\PROJECTS\GUITEST\GUITEST\DEBUG\VC120.PDB
^C:\USERS\MKULTRA\DOCUMENTS\VISUAL STUDIO 2013\PROJECTS\GUITEST\GUITEST\MAIN.CPP
C:\USERS\MKULTRA\DOCUMENTS\VISUAL STUDIO 2013\PROJECTS\GUITEST\GUITEST\DEBUG\VC120.PDB
^C:\USERS\MKULTRA\DOCUMENTS\VISUAL STUDIO 2013\PROJECTS\GUITEST\GUITEST\GUITEST.CPP
C:\USERS\MKULTRA\DOCUMENTS\VISUAL STUDIO 2013\PROJECTS\GUITEST\GUITEST\DEBUG\VC120.PDB
C:\USERS\MKULTRA\DOCUMENTS\VISUAL STUDIO 2013\PROJECTS\GUITEST\GUITEST\DEBUG\GUITEST.OBJ
