^C:\USERS\MKULTRA\DOCUMENTS\VISUAL STUDIO 2013\PROJECTS\GUITEST\GUITEST\GUITEST.QRC
^C:\USERS\MKULTRA\DOCUMENTS\VISUAL STUDIO 2013\PROJECTS\GUITEST\GUITEST\QCUSTOMPLOT.H
G:\QT32\5.5\MSVC2013\BIN\MOC.EXE
^C:\USERS\MKULTRA\DOCUMENTS\VISUAL STUDIO 2013\PROJECTS\GUITEST\GUITEST\GUITEST.UI
G:\QT32\5.5\MSVC2013\BIN\UIC.EXE
^C:\USERS\MKULTRA\DOCUMENTS\VISUAL STUDIO 2013\PROJECTS\GUITEST\GUITEST\GUITEST.H
G:\QT32\5.5\MSVC2013\BIN\MOC.EXE
