^C:\USERS\MKULTRA\DOCUMENTS\VISUAL STUDIO 2013\PROJECTS\GUITEST\GUITEST\DEBUG\DATACOLLECTOR.OBJ|C:\USERS\MKULTRA\DOCUMENTS\VISUAL STUDIO 2013\PROJECTS\GUITEST\GUITEST\DEBUG\GUITEST.OBJ|C:\USERS\MKULTRA\DOCUMENTS\VISUAL STUDIO 2013\PROJECTS\GUITEST\GUITEST\DEBUG\MAIN.OBJ|C:\USERS\MKULTRA\DOCUMENTS\VISUAL STUDIO 2013\PROJECTS\GUITEST\GUITEST\DEBUG\MOC_GUITEST.OBJ|C:\USERS\MKULTRA\DOCUMENTS\VISUAL STUDIO 2013\PROJECTS\GUITEST\GUITEST\DEBUG\MOC_QCUSTOMPLOT.OBJ|C:\USERS\MKULTRA\DOCUMENTS\VISUAL STUDIO 2013\PROJECTS\GUITEST\GUITEST\DEBUG\QCUSTOMPLOT.OBJ|C:\USERS\MKULTRA\DOCUMENTS\VISUAL STUDIO 2013\PROJECTS\GUITEST\GUITEST\DEBUG\QRC_GUITEST.OBJ
C:\USERS\MKULTRA\DOCUMENTS\VISUAL STUDIO 2013\PROJECTS\GUITEST\WIN32\DEBUG\GUITEST.ILK
C:\USERS\MKULTRA\DOCUMENTS\VISUAL STUDIO 2013\PROJECTS\GUITEST\WIN32\DEBUG\GUITEST.EXE
C:\USERS\MKULTRA\DOCUMENTS\VISUAL STUDIO 2013\PROJECTS\GUITEST\WIN32\DEBUG\GUITEST.PDB
