^C:\USERS\MKULTRA\DOCUMENTS\VISUAL STUDIO 2013\PROJECTS\GUITEST\GUITEST\DATACOLLECTOR.CPP
/c /I.\GeneratedFiles /I. /IG:\Qt32\5.5\msvc2013\include /I.\GeneratedFiles\Release /IG:\Qt32\5.5\msvc2013\include\QtCore /IG:\Qt32\5.5\msvc2013\include\QtGui /IG:\Qt32\5.5\msvc2013\include\QtWidgets /nologo /W1 /WX- /O2 /Oy- /D UNICODE /D WIN32 /D WIN64 /D QT_DLL /D QT_NO_DEBUG /D NDEBUG /D QT_CORE_LIB /D QT_GUI_LIB /D QT_WIDGETS_LIB /Gm- /EHsc /MD /GS /fp:precise /Zc:wchar_t /Zc:forScope /Fo"RELEASE\\" /Fd"RELEASE\VC120.PDB" /Gd /TP /analyze- C:\USERS\MKULTRA\DOCUMENTS\VISUAL STUDIO 2013\PROJECTS\GUITEST\GUITEST\DATACOLLECTOR.CPP
^C:\USERS\MKULTRA\DOCUMENTS\VISUAL STUDIO 2013\PROJECTS\GUITEST\GUITEST\GENERATEDFILES\RELEASE\MOC_GUITEST.CPP
/c /I.\GeneratedFiles /I. /IG:\Qt32\5.5\msvc2013\include /I.\GeneratedFiles\Release /IG:\Qt32\5.5\msvc2013\include\QtCore /IG:\Qt32\5.5\msvc2013\include\QtGui /IG:\Qt32\5.5\msvc2013\include\QtWidgets /nologo /W1 /WX- /O2 /Oy- /D UNICODE /D WIN32 /D WIN64 /D QT_DLL /D QT_NO_DEBUG /D NDEBUG /D QT_CORE_LIB /D QT_GUI_LIB /D QT_WIDGETS_LIB /Gm- /EHsc /MD /GS /fp:precise /Zc:wchar_t /Zc:forScope /Fo"RELEASE\\" /Fd"RELEASE\VC120.PDB" /Gd /TP /analyze- C:\USERS\MKULTRA\DOCUMENTS\VISUAL STUDIO 2013\PROJECTS\GUITEST\GUITEST\GENERATEDFILES\RELEASE\MOC_GUITEST.CPP
^C:\USERS\MKULTRA\DOCUMENTS\VISUAL STUDIO 2013\PROJECTS\GUITEST\GUITEST\GENERATEDFILES\RELEASE\MOC_QCUSTOMPLOT.CPP
/c /I.\GeneratedFiles /I. /IG:\Qt32\5.5\msvc2013\include /I.\GeneratedFiles\Release /IG:\Qt32\5.5\msvc2013\include\QtCore /IG:\Qt32\5.5\msvc2013\include\QtGui /IG:\Qt32\5.5\msvc2013\include\QtWidgets /nologo /W1 /WX- /O2 /Oy- /D UNICODE /D WIN32 /D WIN64 /D QT_DLL /D QT_NO_DEBUG /D NDEBUG /D QT_CORE_LIB /D QT_GUI_LIB /D QT_WIDGETS_LIB /Gm- /EHsc /MD /GS /fp:precise /Zc:wchar_t /Zc:forScope /Fo"RELEASE\\" /Fd"RELEASE\VC120.PDB" /Gd /TP /analyze- C:\USERS\MKULTRA\DOCUMENTS\VISUAL STUDIO 2013\PROJECTS\GUITEST\GUITEST\GENERATEDFILES\RELEASE\MOC_QCUSTOMPLOT.CPP
^C:\USERS\MKULTRA\DOCUMENTS\VISUAL STUDIO 2013\PROJECTS\GUITEST\GUITEST\GUITEST.CPP
/c /I.\GeneratedFiles /I. /IG:\Qt32\5.5\msvc2013\include /I.\GeneratedFiles\Release /IG:\Qt32\5.5\msvc2013\include\QtCore /IG:\Qt32\5.5\msvc2013\include\QtGui /IG:\Qt32\5.5\msvc2013\include\QtWidgets /nologo /W1 /WX- /O2 /Oy- /D UNICODE /D WIN32 /D WIN64 /D QT_DLL /D QT_NO_DEBUG /D NDEBUG /D QT_CORE_LIB /D QT_GUI_LIB /D QT_WIDGETS_LIB /Gm- /EHsc /MD /GS /fp:precise /Zc:wchar_t /Zc:forScope /Fo"RELEASE\\" /Fd"RELEASE\VC120.PDB" /Gd /TP /analyze- C:\USERS\MKULTRA\DOCUMENTS\VISUAL STUDIO 2013\PROJECTS\GUITEST\GUITEST\GUITEST.CPP
^C:\USERS\MKULTRA\DOCUMENTS\VISUAL STUDIO 2013\PROJECTS\GUITEST\GUITEST\MAIN.CPP
/c /I.\GeneratedFiles /I. /IG:\Qt32\5.5\msvc2013\include /I.\GeneratedFiles\Release /IG:\Qt32\5.5\msvc2013\include\QtCore /IG:\Qt32\5.5\msvc2013\include\QtGui /IG:\Qt32\5.5\msvc2013\include\QtWidgets /nologo /W1 /WX- /O2 /Oy- /D UNICODE /D WIN32 /D WIN64 /D QT_DLL /D QT_NO_DEBUG /D NDEBUG /D QT_CORE_LIB /D QT_GUI_LIB /D QT_WIDGETS_LIB /Gm- /EHsc /MD /GS /fp:precise /Zc:wchar_t /Zc:forScope /Fo"RELEASE\\" /Fd"RELEASE\VC120.PDB" /Gd /TP /analyze- C:\USERS\MKULTRA\DOCUMENTS\VISUAL STUDIO 2013\PROJECTS\GUITEST\GUITEST\MAIN.CPP
^C:\USERS\MKULTRA\DOCUMENTS\VISUAL STUDIO 2013\PROJECTS\GUITEST\GUITEST\QCUSTOMPLOT.CPP
/c /I.\GeneratedFiles /I. /IG:\Qt32\5.5\msvc2013\include /I.\GeneratedFiles\Release /IG:\Qt32\5.5\msvc2013\include\QtCore /IG:\Qt32\5.5\msvc2013\include\QtGui /IG:\Qt32\5.5\msvc2013\include\QtWidgets /nologo /W1 /WX- /O2 /Oy- /D UNICODE /D WIN32 /D WIN64 /D QT_DLL /D QT_NO_DEBUG /D NDEBUG /D QT_CORE_LIB /D QT_GUI_LIB /D QT_WIDGETS_LIB /Gm- /EHsc /MD /GS /fp:precise /Zc:wchar_t /Zc:forScope /Fo"RELEASE\\" /Fd"RELEASE\VC120.PDB" /Gd /TP /analyze- C:\USERS\MKULTRA\DOCUMENTS\VISUAL STUDIO 2013\PROJECTS\GUITEST\GUITEST\QCUSTOMPLOT.CPP
^C:\USERS\MKULTRA\DOCUMENTS\VISUAL STUDIO 2013\PROJECTS\GUITEST\GUITEST\GENERATEDFILES\QRC_GUITEST.CPP
/c /I.\GeneratedFiles /I. /IG:\Qt32\5.5\msvc2013\include /I.\GeneratedFiles\Release /IG:\Qt32\5.5\msvc2013\include\QtCore /IG:\Qt32\5.5\msvc2013\include\QtGui /IG:\Qt32\5.5\msvc2013\include\QtWidgets /nologo /W1 /WX- /O2 /Oy- /D UNICODE /D WIN32 /D WIN64 /D QT_DLL /D QT_NO_DEBUG /D NDEBUG /D QT_CORE_LIB /D QT_GUI_LIB /D QT_WIDGETS_LIB /Gm- /EHsc /MD /GS /fp:precise /Zc:wchar_t /Zc:forScope /Fo"RELEASE\\" /Fd"RELEASE\VC120.PDB" /Gd /TP /analyze- C:\USERS\MKULTRA\DOCUMENTS\VISUAL STUDIO 2013\PROJECTS\GUITEST\GUITEST\GENERATEDFILES\QRC_GUITEST.CPP
